lab2/simulation/qsim/lab2.msim.vcd
$comment
	File created using the following command:
		vcd file lab2.msim.vcd -direction
$end
$date
	Sat Feb 19 14:05:48 2022
$end
$version
	ModelSim Version 10.1d
$end
$timescale
	1ps
$end
$scope module lab2_vlg_vec_tst $end
$var reg 1 ! KEY0 $end
$var reg 1 " KEY1 $end
$var reg 1 # KEY2 $end
$var reg 1 $ KEY3 $end
$var reg 10 % SW [9:0] $end
$var wire 1 & Code [3] $end
$var wire 1 ' Code [2] $end
$var wire 1 ( Code [1] $end
$var wire 1 ) Code [0] $end
$var wire 1 * HEX0 [6] $end
$var wire 1 + HEX0 [5] $end
$var wire 1 , HEX0 [4] $end
$var wire 1 - HEX0 [3] $end
$var wire 1 . HEX0 [2] $end
$var wire 1 / HEX0 [1] $end
$var wire 1 0 HEX0 [0] $end
$var wire 1 1 HEX1 [6] $end
$var wire 1 2 HEX1 [5] $end
$var wire 1 3 HEX1 [4] $end
$var wire 1 4 HEX1 [3] $end
$var wire 1 5 HEX1 [2] $end
$var wire 1 6 HEX1 [1] $end
$var wire 1 7 HEX1 [0] $end
$var wire 1 8 HEX2 [6] $end
$var wire 1 9 HEX2 [5] $end
$var wire 1 : HEX2 [4] $end
$var wire 1 ; HEX2 [3] $end
$var wire 1 < HEX2 [2] $end
$var wire 1 = HEX2 [1] $end
$var wire 1 > HEX2 [0] $end
$var wire 1 ? HEX3 [6] $end
$var wire 1 @ HEX3 [5] $end
$var wire 1 A HEX3 [4] $end
$var wire 1 B HEX3 [3] $end
$var wire 1 C HEX3 [2] $end
$var wire 1 D HEX3 [1] $end
$var wire 1 E HEX3 [0] $end
$var wire 1 F sampler $end
$scope module i1 $end
$var wire 1 G gnd $end
$var wire 1 H vcc $end
$var wire 1 I unknown $end
$var tri1 1 J devclrn $end
$var tri1 1 K devpor $end
$var tri1 1 L devoe $end
$var wire 1 M Code~0_combout $end
$var wire 1 N Code~1_combout $end
$var wire 1 O Code~2_combout $end
$var wire 1 P Code~3_combout $end
$var wire 1 Q WideOr6~0_combout $end
$var wire 1 R KEY0~combout $end
$var wire 1 S always0~0_combout $end
$var wire 1 T always0~0clkctrl_outclk $end
$var wire 1 U HEX0[0]$latch~combout $end
$var wire 1 V WideOr5~0_combout $end
$var wire 1 W HEX0[1]$latch~combout $end
$var wire 1 X WideOr4~0_combout $end
$var wire 1 Y HEX0[2]$latch~combout $end
$var wire 1 Z WideOr3~0_combout $end
$var wire 1 [ HEX0[3]$latch~combout $end
$var wire 1 \ WideOr2~0_combout $end
$var wire 1 ] HEX0[4]$latch~combout $end
$var wire 1 ^ WideOr1~0_combout $end
$var wire 1 _ HEX0[5]$latch~combout $end
$var wire 1 ` WideOr0~0_combout $end
$var wire 1 a HEX0[6]$latch~combout $end
$var wire 1 b KEY1~combout $end
$var wire 1 c always1~0_combout $end
$var wire 1 d always1~0clkctrl_outclk $end
$var wire 1 e HEX1[0]$latch~combout $end
$var wire 1 f HEX1[1]$latch~combout $end
$var wire 1 g HEX1[2]$latch~combout $end
$var wire 1 h HEX1[3]$latch~combout $end
$var wire 1 i HEX1[4]$latch~combout $end
$var wire 1 j HEX1[5]$latch~combout $end
$var wire 1 k HEX1[6]$latch~combout $end
$var wire 1 l KEY2~combout $end
$var wire 1 m always2~0_combout $end
$var wire 1 n always2~0clkctrl_outclk $end
$var wire 1 o HEX2[0]$latch~combout $end
$var wire 1 p HEX2[1]$latch~combout $end
$var wire 1 q HEX2[2]$latch~combout $end
$var wire 1 r HEX2[3]$latch~combout $end
$var wire 1 s HEX2[4]$latch~combout $end
$var wire 1 t HEX2[5]$latch~combout $end
$var wire 1 u HEX2[6]$latch~combout $end
$var wire 1 v KEY3~combout $end
$var wire 1 w always3~0_combout $end
$var wire 1 x always3~0clkctrl_outclk $end
$var wire 1 y HEX3[0]$latch~combout $end
$var wire 1 z HEX3[1]$latch~combout $end
$var wire 1 { HEX3[2]$latch~combout $end
$var wire 1 | HEX3[3]$latch~combout $end
$var wire 1 } HEX3[4]$latch~combout $end
$var wire 1 ~ HEX3[5]$latch~combout $end
$var wire 1 !! HEX3[6]$latch~combout $end
$var wire 1 "! SW~combout [9] $end
$var wire 1 #! SW~combout [8] $end
$var wire 1 $! SW~combout [7] $end
$var wire 1 %! SW~combout [6] $end
$var wire 1 &! SW~combout [5] $end
$var wire 1 '! SW~combout [4] $end
$var wire 1 (! SW~combout [3] $end
$var wire 1 )! SW~combout [2] $end
$var wire 1 *! SW~combout [1] $end
$var wire 1 +! SW~combout [0] $end
$upscope $end
$upscope $end
$enddefinitions $end
#0
$dumpvars
0!
0"
0#
0$
b0 %
0)
0(
0'
0&
00
0/
0.
0-
0,
0+
1*
07
06
05
04
03
02
11
0>
0=
0<
0;
0:
09
18
0E
0D
0C
0B
0A
0@
1?
xF
0G
1H
xI
1J
1K
1L
0M
0N
0O
0P
0Q
0R
1S
1T
0U
0V
0W
0X
0Y
0Z
0[
0\
0]
0^
0_
0`
1a
0b
1c
1d
0e
0f
0g
0h
0i
0j
1k
0l
1m
1n
0o
0p
0q
0r
0s
0t
1u
0v
1w
1x
0y
0z
0{
0|
0}
0~
1!!
0+!
0*!
0)!
0(!
0'!
0&!
0%!
0$!
0#!
0"!
$end
#480000
1!
1"
1#
1$
b1000 %
b1100 %
b1110 %
b1111 %
1R
1b
1l
1v
1+!
1*!
1)!
1(!
0F
0S
0c
0m
0w
1M
1N
1O
1P
0x
0n
0d
0T
1`
1Z
1X
1V
1)
1(
1'
1&
#800000
b111 %
b11 %
b1 %
b0 %
0+!
0*!
0)!
0(!
1F
0M
0N
0O
0P
0`
0Z
0X
0V
0)
0(
0'
0&
#1040000
0!
0"
0#
0$
0R
0b
0l
0v
0F
1S
1c
1m
1w
1x
1n
1d
1T
#1360000
1!
1"
1#
1$
1R
1b
1l
1v
1F
0S
0c
0m
0w
0x
0n
0d
0T
#1500000
b1000 %
b1100 %
b1101 %
1+!
1)!
1(!
0F
1M
1O
1P
1`
1^
1Q
1)
1'
1&
#2000000
0!
0"
0#
0$
b101 %
b1 %
b0 %
0R
0b
0l
0v
0+!
0)!
0(!
1F
1S
1c
1m
1w
0M
0O
0P
1x
1n
1d
1T
0`
0^
0Q
0!!
1~
1y
0u
1t
1o
0k
1j
1e
0a
1_
1U
0)
0'
0&
1!!
1u
1k
1a
0~
0t
0j
0_
0y
0o
0e
0U
0?
1@
1E
08
19
1>
01
12
17
0*
1+
10
1?
18
11
1*
0@
09
02
0+
0E
0>
07
00
#2500000
b10 %
b1010 %
b1011 %
1+!
1*!
1(!
0F
1M
1N
1P
1`
1V
1Q
1)
1(
1&
0!!
0u
0k
0a
1z
1p
1f
1W
1y
1o
1e
1U
0?
08
01
0*
1D
1=
16
1/
1E
1>
17
10
#3000000
b1001 %
b1 %
b0 %
0+!
0*!
0(!
1F
0M
0N
0P
0`
0V
0Q
0)
0(
0&
1!!
1u
1k
1a
0z
0p
0f
0W
0y
0o
0e
0U
1?
18
11
1*
0D
0=
06
0/
0E
0>
07
00
#3280000
b1000000000 %
1"!
0F
#3440000
1!
1"
1#
1$
1R
1b
1l
1v
1F
#3500000
b1000000100 %
b1000000110 %
b1000001110 %
b1000001111 %
1+!
1*!
1)!
1(!
0F
1M
1N
1O
1P
1`
1Z
1X
1V
1)
1(
1'
1&
0!!
0u
0k
0a
1|
1r
1h
1[
1{
1q
1g
1Y
1z
1p
1f
1W
0?
08
01
0*
1B
1;
14
1-
1C
1<
15
1.
1D
1=
16
1/
#3999000
b1111 %
0!
0"
0#
0$
b1011 %
b1001 %
b1 %
b0 %
0+!
0*!
0)!
0(!
0"!
0R
0b
0l
0v
1F
0M
0N
0O
0P
0`
0Z
0X
0V
0)
0(
0'
0&
1!!
1u
1k
1a
0|
0r
0h
0[
0{
0q
0g
0Y
0z
0p
0f
0W
1?
18
11
1*
0B
0;
04
0-
0C
0<
05
0.
0D
0=
06
0/
#4080000
b100000000 %
b110000000 %
1$!
1#!
0F
1P
1`
1&
0!!
0u
0k
0a
0?
08
01
0*
#4320000
b111000000 %
b111100000 %
b111110000 %
1'!
1&!
1%!
1F
1M
1N
1O
1Z
1X
1V
1)
1(
1'
1|
1r
1h
1[
1{
1q
1g
1Y
1z
1p
1f
1W
1B
1;
14
1-
1C
1<
15
1.
1D
1=
16
1/
#5280000
b110110000 %
b110010000 %
b110000000 %
0'!
0&!
0%!
0F
0M
0N
0O
0Z
0X
0V
0)
0(
0'
0|
0r
0h
0[
0{
0q
0g
0Y
0z
0p
0f
0W
0B
0;
04
0-
0C
0<
05
0.
0D
0=
06
0/
#5840000
b110001000 %
b111001000 %
b111101000 %
b111111000 %
1(!
1'!
1&!
1%!
1F
1M
1N
1O
1Z
1X
1V
1)
1(
1'
1|
1r
1h
1[
1{
1q
1g
1Y
1z
1p
1f
1W
1B
1;
14
1-
1C
1<
15
1.
1D
1=
16
1/
#6720000
b111110000 %
b110110000 %
b110010000 %
b110000000 %
0(!
0'!
0&!
0%!
0F
0M
0N
0O
0Z
0X
0V
0)
0(
0'
0|
0r
0h
0[
0{
0q
0g
0Y
0z
0p
0f
0W
0B
0;
04
0-
0C
0<
05
0.
0D
0=
06
0/
#7280000
b10000000 %
b0 %
0$!
0#!
1F
0P
0`
0&
1!!
1u
1k
1a
1?
18
11
1*
