before_lab6/simulation/qsim/main.msim.vcd
$comment
	File created using the following command:
		vcd file main.msim.vcd -direction
$end
$date
	Mon Apr 11 16:06:31 2022
$end
$version
	ModelSim Version 10.1d
$end
$timescale
	1ps
$end
$scope module main_vlg_vec_tst $end
$var reg 1 ! CLOCK_50 $end
$var reg 4 " KEY [3:0] $end
$var reg 10 # SW [9:0] $end
$var wire 1 $ LEDG [7] $end
$var wire 1 % LEDG [6] $end
$var wire 1 & LEDG [5] $end
$var wire 1 ' LEDG [4] $end
$var wire 1 ( LEDG [3] $end
$var wire 1 ) LEDG [2] $end
$var wire 1 * LEDG [1] $end
$var wire 1 + LEDG [0] $end
$var wire 1 , LEDR [9] $end
$var wire 1 - LEDR [8] $end
$var wire 1 . LEDR [7] $end
$var wire 1 / LEDR [6] $end
$var wire 1 0 LEDR [5] $end
$var wire 1 1 LEDR [4] $end
$var wire 1 2 LEDR [3] $end
$var wire 1 3 LEDR [2] $end
$var wire 1 4 LEDR [1] $end
$var wire 1 5 LEDR [0] $end
$var wire 1 6 LEDR_reg [3] $end
$var wire 1 7 LEDR_reg [2] $end
$var wire 1 8 LEDR_reg [1] $end
$var wire 1 9 LEDR_reg [0] $end
$var wire 1 : memory_massive [3] $end
$var wire 1 ; memory_massive [2] $end
$var wire 1 < memory_massive [1] $end
$var wire 1 = memory_massive [0] $end
$var wire 1 > temp_massive [3] $end
$var wire 1 ? temp_massive [2] $end
$var wire 1 @ temp_massive [1] $end
$var wire 1 A temp_massive [0] $end
$var wire 1 B sampler $end
$scope module i1 $end
$var wire 1 C gnd $end
$var wire 1 D vcc $end
$var wire 1 E unknown $end
$var tri1 1 F devclrn $end
$var tri1 1 G devpor $end
$var tri1 1 H devoe $end
$var wire 1 I memory[3][2]~regout $end
$var wire 1 J memory[3][2]~feeder_combout $end
$var wire 1 K SW[8]~clkctrl_outclk $end
$var wire 1 L memory_massive~2_combout $end
$var wire 1 M memory_massive[0]~reg0_regout $end
$var wire 1 N memory_massive~3_combout $end
$var wire 1 O memory_massive[1]~reg0_regout $end
$var wire 1 P Equal0~1_combout $end
$var wire 1 Q memory_massive~4_combout $end
$var wire 1 R memory_massive[3]~reg0_regout $end
$var wire 1 S memory_massive~5_combout $end
$var wire 1 T memory_massive[2]~reg0_regout $end
$var wire 1 U CLOCK_50~combout $end
$var wire 1 V CLOCK_50~clkctrl_outclk $end
$var wire 1 W Equal0~0_combout $end
$var wire 1 X Decoder0~7_combout $end
$var wire 1 Y memory[3][0]~regout $end
$var wire 1 Z Decoder0~4_combout $end
$var wire 1 [ memory[2][0]~regout $end
$var wire 1 \ Decoder0~6_combout $end
$var wire 1 ] memory[0][0]~regout $end
$var wire 1 ^ Decoder0~5_combout $end
$var wire 1 _ memory[1][0]~regout $end
$var wire 1 ` Mux3~0_combout $end
$var wire 1 a Mux3~1_combout $end
$var wire 1 b temp_massive[0]~reg0_regout $end
$var wire 1 c LEDR_reg[0]~reg0_regout $end
$var wire 1 d memory[0][1]~regout $end
$var wire 1 e memory[1][1]~regout $end
$var wire 1 f Mux2~0_combout $end
$var wire 1 g memory[3][1]~regout $end
$var wire 1 h memory[2][1]~feeder_combout $end
$var wire 1 i memory[2][1]~regout $end
$var wire 1 j Mux2~1_combout $end
$var wire 1 k temp_massive[1]~reg0_regout $end
$var wire 1 l LEDR_reg[1]~reg0feeder_combout $end
$var wire 1 m LEDR_reg[1]~reg0_regout $end
$var wire 1 n memory[1][2]~feeder_combout $end
$var wire 1 o memory[1][2]~regout $end
$var wire 1 p memory[0][2]~regout $end
$var wire 1 q memory[2][2]~feeder_combout $end
$var wire 1 r memory[2][2]~regout $end
$var wire 1 s Mux1~0_combout $end
$var wire 1 t Mux1~1_combout $end
$var wire 1 u temp_massive[2]~reg0_regout $end
$var wire 1 v LEDR_reg[2]~reg0feeder_combout $end
$var wire 1 w LEDR_reg[2]~reg0_regout $end
$var wire 1 x memory[3][3]~feeder_combout $end
$var wire 1 y memory[3][3]~regout $end
$var wire 1 z memory[2][3]~feeder_combout $end
$var wire 1 { memory[2][3]~regout $end
$var wire 1 | memory[0][3]~regout $end
$var wire 1 } memory[1][3]~feeder_combout $end
$var wire 1 ~ memory[1][3]~regout $end
$var wire 1 !! Mux0~0_combout $end
$var wire 1 "! Mux0~1_combout $end
$var wire 1 #! temp_massive[3]~reg0_regout $end
$var wire 1 $! LEDR_reg[3]~reg0_regout $end
$var wire 1 %! SW~combout [9] $end
$var wire 1 &! SW~combout [8] $end
$var wire 1 '! SW~combout [7] $end
$var wire 1 (! SW~combout [6] $end
$var wire 1 )! SW~combout [5] $end
$var wire 1 *! SW~combout [4] $end
$var wire 1 +! SW~combout [3] $end
$var wire 1 ,! SW~combout [2] $end
$var wire 1 -! SW~combout [1] $end
$var wire 1 .! SW~combout [0] $end
$upscope $end
$upscope $end
$enddefinitions $end
#0
$dumpvars
0!
b0 "
b0 #
0+
0*
0)
0(
0'
0&
0%
0$
05
04
03
02
01
00
0/
0.
0-
0,
09
08
07
06
0=
0<
0;
0:
0A
0@
0?
0>
xB
0C
1D
xE
1F
1G
1H
0I
0J
0K
1L
0M
0N
0O
0P
0Q
0R
0S
0T
0U
0V
1W
0X
0Y
0Z
0[
0\
0]
0^
0_
0`
0a
0b
0c
0d
0e
0f
0g
0h
0i
0j
0k
0l
0m
0n
0o
0p
0q
0r
0s
0t
0u
0v
0w
0x
0y
0z
0{
0|
0}
0~
0!!
0"!
0#!
0$!
0.!
0-!
0,!
0+!
z*!
0)!
z(!
z'!
0&!
0%!
$end
#1000
1!
1U
1V
0B
#2000
0!
0U
0V
1B
#3000
1!
1U
1V
0B
#4000
0!
0U
0V
1B
#5000
1!
1U
1V
0B
#6000
0!
0U
0V
1B
#7000
1!
1U
1V
0B
#8000
0!
0U
0V
1B
#9000
1!
1U
1V
0B
#10000
0!
0U
0V
1B
#11000
1!
1U
1V
0B
#12000
0!
0U
0V
1B
#13000
1!
1U
1V
0B
#14000
0!
0U
0V
1B
#15000
1!
1U
1V
0B
#16000
0!
0U
0V
1B
#17000
1!
1U
1V
0B
#18000
0!
0U
0V
1B
#19000
1!
1U
1V
0B
#20000
0!
0U
0V
1B
#21000
1!
1U
1V
0B
#22000
0!
0U
0V
1B
#23000
1!
1U
1V
0B
#24000
0!
0U
0V
1B
#25000
1!
1U
1V
0B
#26000
0!
0U
0V
1B
#27000
1!
1U
1V
0B
#28000
0!
0U
0V
1B
#29000
1!
1U
1V
0B
#30000
0!
0U
0V
1B
#31000
1!
1U
1V
0B
#32000
0!
0U
0V
1B
#33000
1!
1U
1V
0B
#34000
0!
0U
0V
1B
#35000
1!
1U
1V
0B
#36000
0!
0U
0V
1B
#37000
1!
1U
1V
0B
#38000
0!
0U
0V
1B
#39000
1!
1U
1V
0B
#40000
0!
0U
0V
1B
#41000
1!
1U
1V
0B
#42000
0!
0U
0V
1B
#43000
1!
1U
1V
0B
#44000
0!
0U
0V
1B
#45000
1!
1U
1V
0B
#46000
0!
0U
0V
1B
#47000
1!
1U
1V
0B
#48000
0!
0U
0V
1B
#49000
1!
1U
1V
0B
#50000
0!
0U
0V
1B
#51000
1!
1U
1V
0B
#52000
0!
0U
0V
1B
#53000
1!
1U
1V
0B
#54000
0!
0U
0V
1B
#55000
1!
1U
1V
0B
#56000
0!
0U
0V
1B
#57000
1!
1U
1V
0B
#58000
0!
0U
0V
1B
#59000
1!
1U
1V
0B
#60000
0!
0U
0V
1B
#61000
1!
1U
1V
0B
#62000
0!
0U
0V
1B
#63000
1!
1U
1V
0B
#64000
0!
0U
0V
1B
#65000
1!
1U
1V
0B
#66000
0!
0U
0V
1B
#67000
1!
1U
1V
0B
#68000
0!
0U
0V
1B
#69000
1!
1U
1V
0B
#70000
0!
0U
0V
1B
#71000
1!
1U
1V
0B
#72000
0!
0U
0V
1B
#73000
1!
1U
1V
0B
#74000
0!
0U
0V
1B
#75000
1!
1U
1V
0B
#76000
0!
0U
0V
1B
#77000
1!
1U
1V
0B
#78000
0!
0U
0V
1B
#79000
1!
1U
1V
0B
#80000
0!
0U
0V
1B
#81000
1!
1U
1V
0B
#82000
0!
0U
0V
1B
#83000
1!
1U
1V
0B
#84000
0!
0U
0V
1B
#85000
1!
1U
1V
0B
#86000
0!
0U
0V
1B
#87000
1!
1U
1V
0B
#88000
0!
0U
0V
1B
#89000
1!
1U
1V
0B
#90000
0!
0U
0V
1B
#91000
1!
1U
1V
0B
#92000
0!
0U
0V
1B
#93000
1!
1U
1V
0B
#94000
0!
0U
0V
1B
#95000
1!
1U
1V
0B
#96000
0!
0U
0V
1B
#97000
1!
1U
1V
0B
#98000
0!
0U
0V
1B
#99000
1!
1U
1V
0B
#100000
0!
0U
0V
1B
#101000
1!
1U
1V
0B
#102000
0!
0U
0V
1B
#103000
1!
1U
1V
0B
#104000
0!
0U
0V
1B
#105000
1!
1U
1V
0B
#106000
0!
0U
0V
1B
#107000
1!
1U
1V
0B
#108000
0!
0U
0V
1B
#109000
1!
1U
1V
0B
#110000
0!
0U
0V
1B
#111000
1!
1U
1V
0B
#112000
0!
0U
0V
1B
#113000
1!
1U
1V
0B
#114000
0!
0U
0V
1B
#115000
1!
1U
1V
0B
#116000
0!
0U
0V
1B
#117000
1!
1U
1V
0B
#118000
0!
0U
0V
1B
#119000
1!
1U
1V
0B
#120000
b1000000000 #
b1000000001 #
0!
1.!
1%!
0U
0V
1B
1\
#121000
1!
1U
1V
0B
1]
1`
1a
#122000
0!
0U
0V
1B
#123000
1!
1U
1V
0B
1b
1A
#124000
0!
0U
0V
1B
#125000
1!
1U
1V
0B
1c
19
1/
#126000
0!
0U
0V
1B
#127000
1!
1U
1V
0B
#128000
0!
0U
0V
1B
#129000
1!
1U
1V
0B
#130000
0!
0U
0V
1B
#131000
1!
1U
1V
0B
#132000
0!
0U
0V
1B
#133000
1!
1U
1V
0B
#134000
0!
0U
0V
1B
#135000
1!
1U
1V
0B
#136000
0!
0U
0V
1B
#137000
1!
1U
1V
0B
#138000
0!
0U
0V
1B
#139000
1!
1U
1V
0B
#140000
0!
0U
0V
1B
#141000
1!
1U
1V
0B
#142000
0!
0U
0V
1B
#143000
1!
1U
1V
0B
#144000
0!
0U
0V
1B
#145000
1!
1U
1V
0B
#146000
0!
0U
0V
1B
#147000
1!
1U
1V
0B
#148000
0!
0U
0V
1B
#149000
1!
1U
1V
0B
#150000
0!
0U
0V
1B
#151000
1!
1U
1V
0B
#152000
0!
0U
0V
1B
#153000
1!
1U
1V
0B
#154000
0!
0U
0V
1B
#155000
1!
1U
1V
0B
#156000
0!
0U
0V
1B
#157000
1!
1U
1V
0B
#158000
0!
0U
0V
1B
#159000
1!
1U
1V
0B
#160000
0!
0U
0V
1B
#161000
1!
1U
1V
0B
#162000
0!
0U
0V
1B
#163000
1!
1U
1V
0B
#164000
0!
0U
0V
1B
#165000
1!
1U
1V
0B
#166000
0!
0U
0V
1B
#167000
1!
1U
1V
0B
#168000
0!
0U
0V
1B
#169000
1!
1U
1V
0B
#170000
0!
0U
0V
1B
#171000
1!
1U
1V
0B
#172000
0!
0U
0V
1B
#173000
1!
1U
1V
0B
#174000
0!
0U
0V
1B
#175000
1!
1U
1V
0B
#176000
0!
0U
0V
1B
#177000
1!
1U
1V
0B
#178000
0!
0U
0V
1B
#179000
1!
1U
1V
0B
#180000
0!
0U
0V
1B
#181000
1!
1U
1V
0B
#182000
0!
0U
0V
1B
#183000
1!
1U
1V
0B
#184000
0!
0U
0V
1B
#185000
1!
1U
1V
0B
#186000
0!
0U
0V
1B
#187000
1!
1U
1V
0B
#188000
0!
0U
0V
1B
#189000
1!
1U
1V
0B
#190000
0!
0U
0V
1B
#191000
1!
1U
1V
0B
#192000
0!
0U
0V
1B
#193000
1!
1U
1V
0B
#194000
0!
0U
0V
1B
#195000
1!
1U
1V
0B
#196000
0!
0U
0V
1B
#197000
1!
1U
1V
0B
#198000
0!
0U
0V
1B
#199000
1!
1U
1V
0B
#200000
b1 #
b0 #
0!
0.!
0%!
0U
0V
1B
0\
#201000
1!
1U
1V
0B
#202000
0!
0U
0V
1B
#203000
1!
1U
1V
0B
#204000
0!
0U
0V
1B
#205000
1!
1U
1V
0B
#206000
0!
0U
0V
1B
#207000
1!
1U
1V
0B
#208000
0!
0U
0V
1B
#209000
1!
1U
1V
0B
#210000
0!
0U
0V
1B
#211000
1!
1U
1V
0B
#212000
0!
0U
0V
1B
#213000
1!
1U
1V
0B
#214000
0!
0U
0V
1B
#215000
1!
1U
1V
0B
#216000
0!
0U
0V
1B
#217000
1!
1U
1V
0B
#218000
0!
0U
0V
1B
#219000
1!
1U
1V
0B
#220000
0!
0U
0V
1B
#221000
1!
1U
1V
0B
#222000
0!
0U
0V
1B
#223000
1!
1U
1V
0B
#224000
0!
0U
0V
1B
#225000
1!
1U
1V
0B
#226000
0!
0U
0V
1B
#227000
1!
1U
1V
0B
#228000
0!
0U
0V
1B
#229000
1!
1U
1V
0B
#230000
0!
0U
0V
1B
#231000
1!
1U
1V
0B
#232000
0!
0U
0V
1B
#233000
1!
1U
1V
0B
#234000
0!
0U
0V
1B
#235000
1!
1U
1V
0B
#236000
0!
0U
0V
1B
#237000
1!
1U
1V
0B
#238000
0!
0U
0V
1B
#239000
1!
1U
1V
0B
#240000
0!
0U
0V
1B
#241000
1!
1U
1V
0B
#242000
0!
0U
0V
1B
#243000
1!
1U
1V
0B
#244000
0!
0U
0V
1B
#245000
1!
1U
1V
0B
#246000
0!
0U
0V
1B
#247000
1!
1U
1V
0B
#248000
0!
0U
0V
1B
#249000
1!
1U
1V
0B
#250000
0!
0U
0V
1B
#251000
1!
1U
1V
0B
#252000
0!
0U
0V
1B
#253000
1!
1U
1V
0B
#254000
0!
0U
0V
1B
#255000
1!
1U
1V
0B
#256000
0!
0U
0V
1B
#257000
1!
1U
1V
0B
#258000
0!
0U
0V
1B
#259000
1!
1U
1V
0B
#260000
b100000000 #
0!
1&!
0U
0V
1K
1B
1M
0`
1N
0L
1=
15
0a
#261000
1!
1U
1V
0B
0b
0A
#262000
0!
0U
0V
1B
#263000
1!
1U
1V
0B
0c
09
0/
#264000
0!
0U
0V
1B
#265000
1!
1U
1V
0B
#266000
0!
0U
0V
1B
#267000
1!
1U
1V
0B
#268000
0!
0U
0V
1B
#269000
1!
1U
1V
0B
#270000
0!
0U
0V
1B
#271000
1!
1U
1V
0B
#272000
0!
0U
0V
1B
#273000
1!
1U
1V
0B
#274000
0!
0U
0V
1B
#275000
1!
1U
1V
0B
#276000
0!
0U
0V
1B
#277000
1!
1U
1V
0B
#278000
0!
0U
0V
1B
#279000
1!
1U
1V
0B
#280000
0!
0U
0V
1B
#281000
1!
1U
1V
0B
#282000
0!
0U
0V
1B
#283000
1!
1U
1V
0B
#284000
0!
0U
0V
1B
#285000
1!
1U
1V
0B
#286000
0!
0U
0V
1B
#287000
1!
1U
1V
0B
#288000
0!
0U
0V
1B
#289000
1!
1U
1V
0B
#290000
0!
0U
0V
1B
#291000
1!
1U
1V
0B
#292000
0!
0U
0V
1B
#293000
1!
1U
1V
0B
#294000
0!
0U
0V
1B
#295000
1!
1U
1V
0B
#296000
0!
0U
0V
1B
#297000
1!
1U
1V
0B
#298000
0!
0U
0V
1B
#299000
1!
1U
1V
0B
#300000
0!
0U
0V
1B
#301000
1!
1U
1V
0B
#302000
0!
0U
0V
1B
#303000
1!
1U
1V
0B
#304000
0!
0U
0V
1B
#305000
1!
1U
1V
0B
#306000
0!
0U
0V
1B
#307000
1!
1U
1V
0B
#308000
0!
0U
0V
1B
#309000
1!
1U
1V
0B
#310000
0!
0U
0V
1B
#311000
1!
1U
1V
0B
#312000
0!
0U
0V
1B
#313000
1!
1U
1V
0B
#314000
0!
0U
0V
1B
#315000
1!
1U
1V
0B
#316000
0!
0U
0V
1B
#317000
1!
1U
1V
0B
#318000
0!
0U
0V
1B
#319000
1!
1U
1V
0B
#320000
0!
0U
0V
1B
#321000
1!
1U
1V
0B
#322000
0!
0U
0V
1B
#323000
1!
1U
1V
0B
#324000
0!
0U
0V
1B
#325000
1!
1U
1V
0B
#326000
0!
0U
0V
1B
#327000
1!
1U
1V
0B
#328000
0!
0U
0V
1B
#329000
1!
1U
1V
0B
#330000
0!
0U
0V
1B
#331000
1!
1U
1V
0B
#332000
0!
0U
0V
1B
#333000
1!
1U
1V
0B
#334000
0!
0U
0V
1B
#335000
1!
1U
1V
0B
#336000
0!
0U
0V
1B
#337000
1!
1U
1V
0B
#338000
0!
0U
0V
1B
#339000
1!
1U
1V
0B
#340000
0!
0U
0V
1B
#341000
1!
1U
1V
0B
#342000
0!
0U
0V
1B
#343000
1!
1U
1V
0B
#344000
0!
0U
0V
1B
#345000
1!
1U
1V
0B
#346000
0!
0U
0V
1B
#347000
1!
1U
1V
0B
#348000
0!
0U
0V
1B
#349000
1!
1U
1V
0B
#350000
0!
0U
0V
1B
#351000
1!
1U
1V
0B
#352000
0!
0U
0V
1B
#353000
1!
1U
1V
0B
#354000
0!
0U
0V
1B
#355000
1!
1U
1V
0B
#356000
0!
0U
0V
1B
#357000
1!
1U
1V
0B
#358000
0!
0U
0V
1B
#359000
1!
1U
1V
0B
#360000
b0 #
0!
0&!
0U
0V
0K
1B
#361000
1!
1U
1V
0B
#362000
0!
0U
0V
1B
#363000
1!
1U
1V
0B
#364000
0!
0U
0V
1B
#365000
1!
1U
1V
0B
#366000
0!
0U
0V
1B
#367000
1!
1U
1V
0B
#368000
0!
0U
0V
1B
#369000
1!
1U
1V
0B
#370000
0!
0U
0V
1B
#371000
1!
1U
1V
0B
#372000
0!
0U
0V
1B
#373000
1!
1U
1V
0B
#374000
0!
0U
0V
1B
#375000
1!
1U
1V
0B
#376000
0!
0U
0V
1B
#377000
1!
1U
1V
0B
#378000
0!
0U
0V
1B
#379000
1!
1U
1V
0B
#380000
0!
0U
0V
1B
#381000
1!
1U
1V
0B
#382000
0!
0U
0V
1B
#383000
1!
1U
1V
0B
#384000
0!
0U
0V
1B
#385000
1!
1U
1V
0B
#386000
0!
0U
0V
1B
#387000
1!
1U
1V
0B
#388000
0!
0U
0V
1B
#389000
1!
1U
1V
0B
#390000
0!
0U
0V
1B
#391000
1!
1U
1V
0B
#392000
0!
0U
0V
1B
#393000
1!
1U
1V
0B
#394000
0!
0U
0V
1B
#395000
1!
1U
1V
0B
#396000
0!
0U
0V
1B
#397000
1!
1U
1V
0B
#398000
0!
0U
0V
1B
#399000
1!
1U
1V
0B
#400000
0!
0U
0V
1B
#401000
1!
1U
1V
0B
#402000
0!
0U
0V
1B
#403000
1!
1U
1V
0B
#404000
0!
0U
0V
1B
#405000
1!
1U
1V
0B
#406000
0!
0U
0V
1B
#407000
1!
1U
1V
0B
#408000
0!
0U
0V
1B
#409000
1!
1U
1V
0B
#410000
0!
0U
0V
1B
#411000
1!
1U
1V
0B
#412000
0!
0U
0V
1B
#413000
1!
1U
1V
0B
#414000
0!
0U
0V
1B
#415000
1!
1U
1V
0B
#416000
0!
0U
0V
1B
#417000
1!
1U
1V
0B
#418000
0!
0U
0V
1B
#419000
1!
1U
1V
0B
#420000
b1000000000 #
0!
1%!
0U
0V
1B
1^
#421000
1!
1U
1V
0B
#422000
0!
0U
0V
1B
#423000
1!
1U
1V
0B
#424000
0!
0U
0V
1B
#425000
1!
1U
1V
0B
#426000
0!
0U
0V
1B
#427000
1!
1U
1V
0B
#428000
0!
0U
0V
1B
#429000
1!
1U
1V
0B
#430000
0!
0U
0V
1B
#431000
1!
1U
1V
0B
#432000
0!
0U
0V
1B
#433000
1!
1U
1V
0B
#434000
0!
0U
0V
1B
#435000
1!
1U
1V
0B
#436000
0!
0U
0V
1B
#437000
1!
1U
1V
0B
#438000
0!
0U
0V
1B
#439000
1!
1U
1V
0B
#440000
b1000000001 #
0!
1.!
0U
0V
1B
#441000
1!
1U
1V
0B
1_
1`
1a
#442000
0!
0U
0V
1B
#443000
1!
1U
1V
0B
1b
1A
#444000
0!
0U
0V
1B
#445000
1!
1U
1V
0B
1c
19
1/
#446000
0!
0U
0V
1B
#447000
1!
1U
1V
0B
#448000
0!
0U
0V
1B
#449000
1!
1U
1V
0B
#450000
0!
0U
0V
1B
#451000
1!
1U
1V
0B
#452000
0!
0U
0V
1B
#453000
1!
1U
1V
0B
#454000
0!
0U
0V
1B
#455000
1!
1U
1V
0B
#456000
0!
0U
0V
1B
#457000
1!
1U
1V
0B
#458000
0!
0U
0V
1B
#459000
1!
1U
1V
0B
#460000
0!
0U
0V
1B
#461000
1!
1U
1V
0B
#462000
0!
0U
0V
1B
#463000
1!
1U
1V
0B
#464000
0!
0U
0V
1B
#465000
1!
1U
1V
0B
#466000
0!
0U
0V
1B
#467000
1!
1U
1V
0B
#468000
0!
0U
0V
1B
#469000
1!
1U
1V
0B
#470000
0!
0U
0V
1B
#471000
1!
1U
1V
0B
#472000
0!
0U
0V
1B
#473000
1!
1U
1V
0B
#474000
0!
0U
0V
1B
#475000
1!
1U
1V
0B
#476000
0!
0U
0V
1B
#477000
1!
1U
1V
0B
#478000
0!
0U
0V
1B
#479000
1!
1U
1V
0B
#480000
0!
0U
0V
1B
#481000
1!
1U
1V
0B
#482000
0!
0U
0V
1B
#483000
1!
1U
1V
0B
#484000
0!
0U
0V
1B
#485000
1!
1U
1V
0B
#486000
0!
0U
0V
1B
#487000
1!
1U
1V
0B
#488000
0!
0U
0V
1B
#489000
1!
1U
1V
0B
#490000
0!
0U
0V
1B
#491000
1!
1U
1V
0B
#492000
0!
0U
0V
1B
#493000
1!
1U
1V
0B
#494000
0!
0U
0V
1B
#495000
1!
1U
1V
0B
#496000
0!
0U
0V
1B
#497000
1!
1U
1V
0B
#498000
0!
0U
0V
1B
#499000
1!
1U
1V
0B
#500000
b1 #
0!
0%!
0U
0V
1B
0^
#501000
1!
1U
1V
0B
#502000
0!
0U
0V
1B
#503000
1!
1U
1V
0B
#504000
0!
0U
0V
1B
#505000
1!
1U
1V
0B
#506000
0!
0U
0V
1B
#507000
1!
1U
1V
0B
#508000
0!
0U
0V
1B
#509000
1!
1U
1V
0B
#510000
0!
0U
0V
1B
#511000
1!
1U
1V
0B
#512000
0!
0U
0V
1B
#513000
1!
1U
1V
0B
#514000
0!
0U
0V
1B
#515000
1!
1U
1V
0B
#516000
0!
0U
0V
1B
#517000
1!
1U
1V
0B
#518000
0!
0U
0V
1B
#519000
1!
1U
1V
0B
#520000
b0 #
0!
0.!
0U
0V
1B
#521000
1!
1U
1V
0B
#522000
0!
0U
0V
1B
#523000
1!
1U
1V
0B
#524000
0!
0U
0V
1B
#525000
1!
1U
1V
0B
#526000
0!
0U
0V
1B
#527000
1!
1U
1V
0B
#528000
0!
0U
0V
1B
#529000
1!
1U
1V
0B
#530000
0!
0U
0V
1B
#531000
1!
1U
1V
0B
#532000
0!
0U
0V
1B
#533000
1!
1U
1V
0B
#534000
0!
0U
0V
1B
#535000
1!
1U
1V
0B
#536000
0!
0U
0V
1B
#537000
1!
1U
1V
0B
#538000
0!
0U
0V
1B
#539000
1!
1U
1V
0B
#540000
0!
0U
0V
1B
#541000
1!
1U
1V
0B
#542000
0!
0U
0V
1B
#543000
1!
1U
1V
0B
#544000
0!
0U
0V
1B
#545000
1!
1U
1V
0B
#546000
0!
0U
0V
1B
#547000
1!
1U
1V
0B
#548000
0!
0U
0V
1B
#549000
1!
1U
1V
0B
#550000
0!
0U
0V
1B
#551000
1!
1U
1V
0B
#552000
0!
0U
0V
1B
#553000
1!
1U
1V
0B
#554000
0!
0U
0V
1B
#555000
1!
1U
1V
0B
#556000
0!
0U
0V
1B
#557000
1!
1U
1V
0B
#558000
0!
0U
0V
1B
#559000
1!
1U
1V
0B
#560000
0!
0U
0V
1B
#561000
1!
1U
1V
0B
#562000
0!
0U
0V
1B
#563000
1!
1U
1V
0B
#564000
0!
0U
0V
1B
#565000
1!
1U
1V
0B
#566000
0!
0U
0V
1B
#567000
1!
1U
1V
0B
#568000
0!
0U
0V
1B
#569000
1!
1U
1V
0B
#570000
0!
0U
0V
1B
#571000
1!
1U
1V
0B
#572000
0!
0U
0V
1B
#573000
1!
1U
1V
0B
#574000
0!
0U
0V
1B
#575000
1!
1U
1V
0B
#576000
0!
0U
0V
1B
#577000
1!
1U
1V
0B
#578000
0!
0U
0V
1B
#579000
1!
1U
1V
0B
#580000
0!
0U
0V
1B
#581000
1!
1U
1V
0B
#582000
0!
0U
0V
1B
#583000
1!
1U
1V
0B
#584000
0!
0U
0V
1B
#585000
1!
1U
1V
0B
#586000
0!
0U
0V
1B
#587000
1!
1U
1V
0B
#588000
0!
0U
0V
1B
#589000
1!
1U
1V
0B
#590000
0!
0U
0V
1B
#591000
1!
1U
1V
0B
#592000
0!
0U
0V
1B
#593000
1!
1U
1V
0B
#594000
0!
0U
0V
1B
#595000
1!
1U
1V
0B
#596000
0!
0U
0V
1B
#597000
1!
1U
1V
0B
#598000
0!
0U
0V
1B
#599000
1!
1U
1V
0B
#600000
0!
0U
0V
1B
#601000
1!
1U
1V
0B
#602000
0!
0U
0V
1B
#603000
1!
1U
1V
0B
#604000
0!
0U
0V
1B
#605000
1!
1U
1V
0B
#606000
0!
0U
0V
1B
#607000
1!
1U
1V
0B
#608000
0!
0U
0V
1B
#609000
1!
1U
1V
0B
#610000
0!
0U
0V
1B
#611000
1!
1U
1V
0B
#612000
0!
0U
0V
1B
#613000
1!
1U
1V
0B
#614000
0!
0U
0V
1B
#615000
1!
1U
1V
0B
#616000
0!
0U
0V
1B
#617000
1!
1U
1V
0B
#618000
0!
0U
0V
1B
#619000
1!
1U
1V
0B
#620000
0!
0U
0V
1B
#621000
1!
1U
1V
0B
#622000
0!
0U
0V
1B
#623000
1!
1U
1V
0B
#624000
0!
0U
0V
1B
#625000
1!
1U
1V
0B
#626000
0!
0U
0V
1B
#627000
1!
1U
1V
0B
#628000
0!
0U
0V
1B
#629000
1!
1U
1V
0B
#630000
0!
0U
0V
1B
#631000
1!
1U
1V
0B
#632000
0!
0U
0V
1B
#633000
1!
1U
1V
0B
#634000
0!
0U
0V
1B
#635000
1!
1U
1V
0B
#636000
0!
0U
0V
1B
#637000
1!
1U
1V
0B
#638000
0!
0U
0V
1B
#639000
1!
1U
1V
0B
#640000
0!
0U
0V
1B
#641000
1!
1U
1V
0B
#642000
0!
0U
0V
1B
#643000
1!
1U
1V
0B
#644000
0!
0U
0V
1B
#645000
1!
1U
1V
0B
#646000
0!
0U
0V
1B
#647000
1!
1U
1V
0B
#648000
0!
0U
0V
1B
#649000
1!
1U
1V
0B
#650000
0!
0U
0V
1B
#651000
1!
1U
1V
0B
#652000
0!
0U
0V
1B
#653000
1!
1U
1V
0B
#654000
0!
0U
0V
1B
#655000
1!
1U
1V
0B
#656000
0!
0U
0V
1B
#657000
1!
1U
1V
0B
#658000
0!
0U
0V
1B
#659000
1!
1U
1V
0B
#660000
0!
0U
0V
1B
#661000
1!
1U
1V
0B
#662000
0!
0U
0V
1B
#663000
1!
1U
1V
0B
#664000
0!
0U
0V
1B
#665000
1!
1U
1V
0B
#666000
0!
0U
0V
1B
#667000
1!
1U
1V
0B
#668000
0!
0U
0V
1B
#669000
1!
1U
1V
0B
#670000
0!
0U
0V
1B
#671000
1!
1U
1V
0B
#672000
0!
0U
0V
1B
#673000
1!
1U
1V
0B
#674000
0!
0U
0V
1B
#675000
1!
1U
1V
0B
#676000
0!
0U
0V
1B
#677000
1!
1U
1V
0B
#678000
0!
0U
0V
1B
#679000
1!
1U
1V
0B
#680000
0!
0U
0V
1B
#681000
1!
1U
1V
0B
#682000
0!
0U
0V
1B
#683000
1!
1U
1V
0B
#684000
0!
0U
0V
1B
#685000
1!
1U
1V
0B
#686000
0!
0U
0V
1B
#687000
1!
1U
1V
0B
#688000
0!
0U
0V
1B
#689000
1!
1U
1V
0B
#690000
0!
0U
0V
1B
#691000
1!
1U
1V
0B
#692000
0!
0U
0V
1B
#693000
1!
1U
1V
0B
#694000
0!
0U
0V
1B
#695000
1!
1U
1V
0B
#696000
0!
0U
0V
1B
#697000
1!
1U
1V
0B
#698000
0!
0U
0V
1B
#699000
1!
1U
1V
0B
#700000
0!
0U
0V
1B
#701000
1!
1U
1V
0B
#702000
0!
0U
0V
1B
#703000
1!
1U
1V
0B
#704000
0!
0U
0V
1B
#705000
1!
1U
1V
0B
#706000
0!
0U
0V
1B
#707000
1!
1U
1V
0B
#708000
0!
0U
0V
1B
#709000
1!
1U
1V
0B
#710000
0!
0U
0V
1B
#711000
1!
1U
1V
0B
#712000
0!
0U
0V
1B
#713000
1!
1U
1V
0B
#714000
0!
0U
0V
1B
#715000
1!
1U
1V
0B
#716000
0!
0U
0V
1B
#717000
1!
1U
1V
0B
#718000
0!
0U
0V
1B
#719000
1!
1U
1V
0B
#720000
0!
0U
0V
1B
#721000
1!
1U
1V
0B
#722000
0!
0U
0V
1B
#723000
1!
1U
1V
0B
#724000
0!
0U
0V
1B
#725000
1!
1U
1V
0B
#726000
0!
0U
0V
1B
#727000
1!
1U
1V
0B
#728000
0!
0U
0V
1B
#729000
1!
1U
1V
0B
#730000
0!
0U
0V
1B
#731000
1!
1U
1V
0B
#732000
0!
0U
0V
1B
#733000
1!
1U
1V
0B
#734000
0!
0U
0V
1B
#735000
1!
1U
1V
0B
#736000
0!
0U
0V
1B
#737000
1!
1U
1V
0B
#738000
0!
0U
0V
1B
#739000
1!
1U
1V
0B
#740000
0!
0U
0V
1B
#741000
1!
1U
1V
0B
#742000
0!
0U
0V
1B
#743000
1!
1U
1V
0B
#744000
0!
0U
0V
1B
#745000
1!
1U
1V
0B
#746000
0!
0U
0V
1B
#747000
1!
1U
1V
0B
#748000
0!
0U
0V
1B
#749000
1!
1U
1V
0B
