lab4/simulation/qsim/lab4.msim.vcd
$comment
	File created using the following command:
		vcd file lab4.msim.vcd -direction
$end
$date
	Sat Feb 26 12:44:30 2022
$end
$version
	ModelSim Version 10.1d
$end
$timescale
	1ps
$end
$scope module lab4_vlg_vec_tst $end
$var reg 2 ! KEY [1:0] $end
$var reg 10 " SW [9:0] $end
$var reg 1 # clk $end
$var wire 1 $ HEX0 [6] $end
$var wire 1 % HEX0 [5] $end
$var wire 1 & HEX0 [4] $end
$var wire 1 ' HEX0 [3] $end
$var wire 1 ( HEX0 [2] $end
$var wire 1 ) HEX0 [1] $end
$var wire 1 * HEX0 [0] $end
$var wire 1 + HEX1 [6] $end
$var wire 1 , HEX1 [5] $end
$var wire 1 - HEX1 [4] $end
$var wire 1 . HEX1 [3] $end
$var wire 1 / HEX1 [2] $end
$var wire 1 0 HEX1 [1] $end
$var wire 1 1 HEX1 [0] $end
$var wire 1 2 LEDR [9] $end
$var wire 1 3 LEDR [8] $end
$var wire 1 4 LEDR [7] $end
$var wire 1 5 LEDR [6] $end
$var wire 1 6 LEDR [5] $end
$var wire 1 7 LEDR [4] $end
$var wire 1 8 LEDR [3] $end
$var wire 1 9 LEDR [2] $end
$var wire 1 : LEDR [1] $end
$var wire 1 ; LEDR [0] $end
$var wire 1 < check_x [9] $end
$var wire 1 = check_x [8] $end
$var wire 1 > check_x [7] $end
$var wire 1 ? check_x [6] $end
$var wire 1 @ check_x [5] $end
$var wire 1 A check_x [4] $end
$var wire 1 B check_x [3] $end
$var wire 1 C check_x [2] $end
$var wire 1 D check_x [1] $end
$var wire 1 E check_x [0] $end
$var wire 1 F check_y [9] $end
$var wire 1 G check_y [8] $end
$var wire 1 H check_y [7] $end
$var wire 1 I check_y [6] $end
$var wire 1 J check_y [5] $end
$var wire 1 K check_y [4] $end
$var wire 1 L check_y [3] $end
$var wire 1 M check_y [2] $end
$var wire 1 N check_y [1] $end
$var wire 1 O check_y [0] $end
$var wire 1 P count [6] $end
$var wire 1 Q count [5] $end
$var wire 1 R count [4] $end
$var wire 1 S count [3] $end
$var wire 1 T count [2] $end
$var wire 1 U count [1] $end
$var wire 1 V count [0] $end
$var wire 1 W shift_rg [9] $end
$var wire 1 X shift_rg [8] $end
$var wire 1 Y shift_rg [7] $end
$var wire 1 Z shift_rg [6] $end
$var wire 1 [ shift_rg [5] $end
$var wire 1 \ shift_rg [4] $end
$var wire 1 ] shift_rg [3] $end
$var wire 1 ^ shift_rg [2] $end
$var wire 1 _ shift_rg [1] $end
$var wire 1 ` shift_rg [0] $end
$var wire 1 a x_out [6] $end
$var wire 1 b x_out [5] $end
$var wire 1 c x_out [4] $end
$var wire 1 d x_out [3] $end
$var wire 1 e x_out [2] $end
$var wire 1 f x_out [1] $end
$var wire 1 g x_out [0] $end
$var wire 1 h y_out [6] $end
$var wire 1 i y_out [5] $end
$var wire 1 j y_out [4] $end
$var wire 1 k y_out [3] $end
$var wire 1 l y_out [2] $end
$var wire 1 m y_out [1] $end
$var wire 1 n y_out [0] $end
$var wire 1 o sampler $end
$scope module i1 $end
$var wire 1 p gnd $end
$var wire 1 q vcc $end
$var wire 1 r unknown $end
$var tri1 1 s devclrn $end
$var tri1 1 t devpor $end
$var tri1 1 u devoe $end
$var wire 1 v Mod0|auto_generated|divider|divider|add_sub_6_result_int[3]~4_combout $end
$var wire 1 w Mod0|auto_generated|divider|divider|add_sub_7_result_int[1]~0_combout $end
$var wire 1 x Mod0|auto_generated|divider|divider|add_sub_8_result_int[2]~2_combout $end
$var wire 1 y Mod0|auto_generated|divider|divider|add_sub_8_result_int[3]~4_combout $end
$var wire 1 z Mod0|auto_generated|divider|divider|add_sub_9_result_int[2]~2_combout $end
$var wire 1 { Mod0|auto_generated|divider|divider|StageOut[33]~27_combout $end
$var wire 1 | Mod0|auto_generated|divider|divider|StageOut[32]~28_combout $end
$var wire 1 } Mod0|auto_generated|divider|divider|StageOut[31]~30_combout $end
$var wire 1 ~ Mod0|auto_generated|divider|divider|StageOut[30]~33_combout $end
$var wire 1 !! Mod0|auto_generated|divider|divider|StageOut[36]~37_combout $end
$var wire 1 "! Mod0|auto_generated|divider|divider|StageOut[35]~39_combout $end
$var wire 1 #! Mod0|auto_generated|divider|divider|StageOut[40]~41_combout $end
$var wire 1 $! Mod0|auto_generated|divider|divider|StageOut[43]~42_combout $end
$var wire 1 %! Mod0|auto_generated|divider|divider|StageOut[42]~43_combout $end
$var wire 1 &! Mod0|auto_generated|divider|divider|StageOut[41]~45_combout $end
$var wire 1 '! x_out[6]~1_combout $end
$var wire 1 (! x_out[0]~6_combout $end
$var wire 1 )! count[0]~8_combout $end
$var wire 1 *! count[0]~9_combout $end
$var wire 1 +! count[0]~10_combout $end
$var wire 1 ,! Mod0|auto_generated|divider|divider|StageOut[38]~47_combout $end
$var wire 1 -! clk~combout $end
$var wire 1 .! clk~clkctrl_outclk $end
$var wire 1 /! shift_rg[0]~reg0feeder_combout $end
$var wire 1 0! KEY[1]~clkctrl_outclk $end
$var wire 1 1! shift_rg[0]~reg0_regout $end
$var wire 1 2! shift_rg[1]~reg0feeder_combout $end
$var wire 1 3! shift_rg[1]~reg0_regout $end
$var wire 1 4! shift_rg[2]~reg0_regout $end
$var wire 1 5! shift_rg[3]~reg0_regout $end
$var wire 1 6! shift_rg[4]~reg0_regout $end
$var wire 1 7! shift_rg[5]~reg0_regout $end
$var wire 1 8! shift_rg[6]~reg0feeder_combout $end
$var wire 1 9! shift_rg[6]~reg0_regout $end
$var wire 1 :! shift_rg[7]~reg0_regout $end
$var wire 1 ;! shift_rg[8]~reg0feeder_combout $end
$var wire 1 <! shift_rg[8]~reg0_regout $end
$var wire 1 =! shift_rg[9]~reg0feeder_combout $end
$var wire 1 >! shift_rg[9]~reg0_regout $end
$var wire 1 ?! count[0]~11_combout $end
$var wire 1 @! count[0]~12_combout $end
$var wire 1 A! count[0]~reg0_regout $end
$var wire 1 B! count[1]~14 $end
$var wire 1 C! count[2]~15_combout $end
$var wire 1 D! count[0]~25_combout $end
$var wire 1 E! count[2]~reg0_regout $end
$var wire 1 F! count[2]~16 $end
$var wire 1 G! count[3]~17_combout $end
$var wire 1 H! count[3]~reg0_regout $end
$var wire 1 I! count[3]~18 $end
$var wire 1 J! count[4]~20 $end
$var wire 1 K! count[5]~21_combout $end
$var wire 1 L! count[5]~reg0_regout $end
$var wire 1 M! count[5]~22 $end
$var wire 1 N! count[6]~23_combout $end
$var wire 1 O! count[6]~reg0_regout $end
$var wire 1 P! LessThan2~2_combout $end
$var wire 1 Q! x_out[6]~0_combout $end
$var wire 1 R! y_out[6]~0_combout $end
$var wire 1 S! y_out[6]~0clkctrl_outclk $end
$var wire 1 T! y_out[0]$latch~combout $end
$var wire 1 U! count[1]~13_combout $end
$var wire 1 V! count[1]~reg0_regout $end
$var wire 1 W! y[1]~feeder_combout $end
$var wire 1 X! count[4]~19_combout $end
$var wire 1 Y! count[4]~reg0_regout $end
$var wire 1 Z! Mod0|auto_generated|divider|divider|add_sub_6_result_int[1]~1 $end
$var wire 1 [! Mod0|auto_generated|divider|divider|add_sub_6_result_int[2]~2_combout $end
$var wire 1 \! Mod0|auto_generated|divider|divider|add_sub_6_result_int[2]~3 $end
$var wire 1 ]! Mod0|auto_generated|divider|divider|add_sub_6_result_int[3]~5 $end
$var wire 1 ^! Mod0|auto_generated|divider|divider|add_sub_6_result_int[4]~7_cout $end
$var wire 1 _! Mod0|auto_generated|divider|divider|add_sub_6_result_int[5]~8_combout $end
$var wire 1 `! Mod0|auto_generated|divider|divider|StageOut[32]~29_combout $end
$var wire 1 a! Mod0|auto_generated|divider|divider|add_sub_6_result_int[1]~0_combout $end
$var wire 1 b! Mod0|auto_generated|divider|divider|StageOut[31]~31_combout $end
$var wire 1 c! Mod0|auto_generated|divider|divider|StageOut[30]~32_combout $end
$var wire 1 d! Mod0|auto_generated|divider|divider|add_sub_7_result_int[1]~1 $end
$var wire 1 e! Mod0|auto_generated|divider|divider|add_sub_7_result_int[2]~3 $end
$var wire 1 f! Mod0|auto_generated|divider|divider|add_sub_7_result_int[3]~4_combout $end
$var wire 1 g! Mod0|auto_generated|divider|divider|StageOut[33]~26_combout $end
$var wire 1 h! Mod0|auto_generated|divider|divider|add_sub_7_result_int[3]~5 $end
$var wire 1 i! Mod0|auto_generated|divider|divider|add_sub_7_result_int[4]~7_cout $end
$var wire 1 j! Mod0|auto_generated|divider|divider|add_sub_7_result_int[5]~8_combout $end
$var wire 1 k! Mod0|auto_generated|divider|divider|StageOut[38]~34_combout $end
$var wire 1 l! Mod0|auto_generated|divider|divider|add_sub_7_result_int[2]~2_combout $end
$var wire 1 m! Mod0|auto_generated|divider|divider|StageOut[37]~35_combout $end
$var wire 1 n! Mod0|auto_generated|divider|divider|StageOut[36]~36_combout $end
$var wire 1 o! Mod0|auto_generated|divider|divider|StageOut[35]~38_combout $end
$var wire 1 p! Mod0|auto_generated|divider|divider|add_sub_8_result_int[1]~1 $end
$var wire 1 q! Mod0|auto_generated|divider|divider|add_sub_8_result_int[2]~3 $end
$var wire 1 r! Mod0|auto_generated|divider|divider|add_sub_8_result_int[3]~5 $end
$var wire 1 s! Mod0|auto_generated|divider|divider|add_sub_8_result_int[4]~7_cout $end
$var wire 1 t! Mod0|auto_generated|divider|divider|add_sub_8_result_int[5]~8_combout $end
$var wire 1 u! Mod0|auto_generated|divider|divider|StageOut[40]~40_combout $end
$var wire 1 v! Mod0|auto_generated|divider|divider|add_sub_9_result_int[1]~0_combout $end
$var wire 1 w! Mod0|auto_generated|divider|divider|StageOut[37]~48_combout $end
$var wire 1 x! Mod0|auto_generated|divider|divider|StageOut[43]~46_combout $end
$var wire 1 y! Mod0|auto_generated|divider|divider|StageOut[42]~49_combout $end
$var wire 1 z! Mod0|auto_generated|divider|divider|StageOut[41]~44_combout $end
$var wire 1 {! Mod0|auto_generated|divider|divider|add_sub_9_result_int[1]~1 $end
$var wire 1 |! Mod0|auto_generated|divider|divider|add_sub_9_result_int[2]~3 $end
$var wire 1 }! Mod0|auto_generated|divider|divider|add_sub_9_result_int[3]~5 $end
$var wire 1 ~! Mod0|auto_generated|divider|divider|add_sub_9_result_int[4]~7_cout $end
$var wire 1 !" Mod0|auto_generated|divider|divider|add_sub_9_result_int[5]~8_combout $end
$var wire 1 "" y_out[1]~1_combout $end
$var wire 1 #" y_out[1]$latch~combout $end
$var wire 1 $" LessThan2~3_combout $end
$var wire 1 %" LessThan2~4_combout $end
$var wire 1 &" Mod0|auto_generated|divider|divider|add_sub_8_result_int[1]~0_combout $end
$var wire 1 '" y_out[2]~2_combout $end
$var wire 1 (" y_out[2]~3_combout $end
$var wire 1 )" y_out[2]$latch~combout $end
$var wire 1 *" Mod0|auto_generated|divider|divider|add_sub_9_result_int[3]~4_combout $end
$var wire 1 +" y_out[3]~4_combout $end
$var wire 1 ," y_out[3]~5_combout $end
$var wire 1 -" y_out[3]$latch~combout $end
$var wire 1 ." x_out[0]~2_combout $end
$var wire 1 /" x_out[0]~3_combout $end
$var wire 1 0" x_out[0]~4_combout $end
$var wire 1 1" x_out[0]~5_combout $end
$var wire 1 2" comb~17_combout $end
$var wire 1 3" comb~16_combout $end
$var wire 1 4" x_out[0]$latch~combout $end
$var wire 1 5" x_out[1]~9_combout $end
$var wire 1 6" x_out[1]~10_combout $end
$var wire 1 7" comb~18_combout $end
$var wire 1 8" comb~19_combout $end
$var wire 1 9" x_out[1]$latch~combout $end
$var wire 1 :" x_out[2]~7_combout $end
$var wire 1 ;" comb~12_combout $end
$var wire 1 <" comb~13_combout $end
$var wire 1 =" x_out[2]$latch~combout $end
$var wire 1 >" x_out[3]~8_combout $end
$var wire 1 ?" comb~14_combout $end
$var wire 1 @" comb~15_combout $end
$var wire 1 A" x_out[3]$latch~combout $end
$var wire 1 B" WideOr0~0_combout $end
$var wire 1 C" WideOr0~0clkctrl_outclk $end
$var wire 1 D" HEX0~0_combout $end
$var wire 1 E" HEX0[0]$latch~combout $end
$var wire 1 F" HEX0~1_combout $end
$var wire 1 G" HEX0[1]$latch~combout $end
$var wire 1 H" Decoder0~0_combout $end
$var wire 1 I" HEX0[2]$latch~combout $end
$var wire 1 J" WideOr8~0_combout $end
$var wire 1 K" HEX0[3]$latch~combout $end
$var wire 1 L" WideOr6~0_combout $end
$var wire 1 M" HEX0[4]$latch~combout $end
$var wire 1 N" WideOr4~0_combout $end
$var wire 1 O" HEX0[5]$latch~combout $end
$var wire 1 P" WideOr2~0_combout $end
$var wire 1 Q" HEX0[6]$latch~combout $end
$var wire 1 R" WideOr18~0_combout $end
$var wire 1 S" WideOr17~0_combout $end
$var wire 1 T" WideOr16~0_combout $end
$var wire 1 U" WideOr15~0_combout $end
$var wire 1 V" WideOr14~0_combout $end
$var wire 1 W" WideOr13~0_combout $end
$var wire 1 X" WideOr12~0_combout $end
$var wire 1 Y" check_x[0]~reg0_regout $end
$var wire 1 Z" check_x[1]~reg0_regout $end
$var wire 1 [" check_x[2]~reg0_regout $end
$var wire 1 \" check_x[3]~reg0_regout $end
$var wire 1 ]" check_x[4]~reg0feeder_combout $end
$var wire 1 ^" check_x[4]~reg0_regout $end
$var wire 1 _" check_x[5]~reg0_regout $end
$var wire 1 `" check_x[6]~reg0_regout $end
$var wire 1 a" check_y[0]~reg0feeder_combout $end
$var wire 1 b" check_y[0]~reg0_regout $end
$var wire 1 c" Add1~0_combout $end
$var wire 1 d" check_y[1]~reg0_regout $end
$var wire 1 e" Add1~1 $end
$var wire 1 f" Add1~2_combout $end
$var wire 1 g" check_y[2]~reg0_regout $end
$var wire 1 h" Add1~3 $end
$var wire 1 i" Add1~4_combout $end
$var wire 1 j" check_y[3]~reg0_regout $end
$var wire 1 k" Add1~5 $end
$var wire 1 l" Add1~6_combout $end
$var wire 1 m" check_y[4]~reg0_regout $end
$var wire 1 n" Add1~7 $end
$var wire 1 o" Add1~8_combout $end
$var wire 1 p" check_y[5]~reg0_regout $end
$var wire 1 q" Add1~9 $end
$var wire 1 r" Add1~10_combout $end
$var wire 1 s" check_y[6]~reg0_regout $end
$var wire 1 t" Add1~11 $end
$var wire 1 u" Add1~12_combout $end
$var wire 1 v" check_y[7]~0_combout $end
$var wire 1 w" check_y[7]~reg0_regout $end
$var wire 1 x" check_y[8]~1_combout $end
$var wire 1 y" check_y[8]~reg0_regout $end
$var wire 1 z" check_y[9]~2_combout $end
$var wire 1 {" check_y[9]~reg0_regout $end
$var wire 1 |" SW~combout [9] $end
$var wire 1 }" SW~combout [8] $end
$var wire 1 ~" SW~combout [7] $end
$var wire 1 !# SW~combout [6] $end
$var wire 1 "# SW~combout [5] $end
$var wire 1 ## SW~combout [4] $end
$var wire 1 $# SW~combout [3] $end
$var wire 1 %# SW~combout [2] $end
$var wire 1 &# SW~combout [1] $end
$var wire 1 '# SW~combout [0] $end
$var wire 1 (# y [9] $end
$var wire 1 )# y [8] $end
$var wire 1 *# y [7] $end
$var wire 1 +# y [6] $end
$var wire 1 ,# y [5] $end
$var wire 1 -# y [4] $end
$var wire 1 .# y [3] $end
$var wire 1 /# y [2] $end
$var wire 1 0# y [1] $end
$var wire 1 1# y [0] $end
$var wire 1 2# KEY~combout [1] $end
$var wire 1 3# KEY~combout [0] $end
$upscope $end
$upscope $end
$enddefinitions $end
#0
$dumpvars
b10 !
b1111100000 "
0#
0*
0)
0(
0'
0&
0%
1$
x1
x0
x/
x.
x-
x,
x+
0;
0:
09
08
07
06
05
04
03
02
0E
0D
0C
0B
0A
0@
0?
0>
0=
0<
0O
0N
0M
0L
0K
0J
0I
0H
0G
0F
0V
0U
0T
0S
0R
0Q
0P
0`
0_
0^
0]
0\
0[
0Z
0Y
0X
0W
xg
xf
xe
xd
0c
0b
0a
0n
0m
0l
0k
0j
0i
0h
xo
0p
1q
xr
1s
1t
1u
0v
1w
1x
0y
1z
0{
0|
0}
0~
0!!
0"!
0#!
0$!
0%!
0&!
0'!
0(!
1)!
1*!
1+!
0,!
0-!
0.!
0/!
10!
01!
02!
03!
04!
05!
06!
07!
18!
09!
0:!
1;!
0<!
1=!
0>!
1?!
1@!
0A!
0B!
0C!
1D!
0E!
1F!
0G!
0H!
0I!
1J!
0K!
0L!
0M!
0N!
0O!
1P!
1Q!
1R!
1S!
0T!
0U!
0V!
0W!
0X!
0Y!
0Z!
1[!
1\!
0]!
1^!
1_!
0`!
1a!
0b!
0c!
0d!
1e!
0f!
0g!
0h!
1i!
1j!
0k!
1l!
0m!
0n!
0o!
0p!
1q!
0r!
1s!
1t!
0u!
1v!
0w!
0x!
0y!
0z!
0{!
1|!
0}!
1~!
1!"
0""
0#"
1$"
1%"
1&"
0'"
0("
0)"
0*"
0+"
0,"
0-"
0."
0/"
00"
01"
02"
03"
x4"
05"
06"
07"
08"
x9"
0:"
0;"
0<"
x="
0>"
0?"
0@"
xA"
1B"
1C"
0D"
0E"
0F"
0G"
0H"
0I"
0J"
0K"
0L"
0M"
0N"
0O"
0P"
1Q"
xR"
xS"
xT"
xU"
xV"
xW"
xX"
0Y"
0Z"
0["
0\"
0]"
0^"
0_"
0`"
0a"
0b"
0c"
0d"
1e"
0f"
0g"
0h"
0i"
0j"
1k"
0l"
0m"
0n"
0o"
0p"
1q"
0r"
0s"
0t"
1u"
0v"
0w"
0x"
0y"
0z"
0{"
0'#
0&#
0%#
0$#
0##
1"#
1!#
1~"
1}"
1|"
01#
00#
0/#
0.#
0-#
0,#
0+#
z*#
z)#
z(#
03#
12#
$end
#200000
1#
1-!
1.!
0o
1A!
1>!
1<!
1:!
19!
17!
1a"
1U!
0@!
1V
1W
12
1X
13
1Y
14
1Z
15
1[
16
#400000
0#
0-!
0.!
1o
#600000
1#
1-!
1.!
0o
1b"
1Y"
1V!
11#
0A!
1c"
1W!
1;"
17"
13"
1T!
1'!
0a"
1@!
1O
1E
1U
0V
0="
09"
04"
1N"
1L"
1J"
1D"
1?"
1n
0W"
0V"
0U"
0T"
0S"
0R"
1O"
1M"
1K"
1E"
0A"
0e
0f
0g
0X"
0,
0-
0.
0/
00
01
1%
1&
1'
1*
0d
1+
#800000
0#
0-!
0.!
1o
#1000000
1#
1-!
1.!
0o
10#
1d"
0b"
1Z"
0Y"
01#
1A!
0c"
1""
1u!
0Q!
0;"
07"
03"
0T!
0'!
1a"
1B!
0U!
0@!
1N
0O
1D
0E
1V
1#"
1{!
0v!
1;"
17"
13"
1'!
0N"
0L"
0J"
0D"
0?"
1C!
0n
1P"
1N"
1H"
0|!
0z
1?"
0O"
0M"
0K"
0E"
1m
0Q"
1O"
1I"
1*"
0%
0&
0'
0*
0$
1%
1(
#1200000
0#
0-!
0.!
1o
#1400000
1#
1-!
1.!
0o
0d"
1b"
1Y"
0V!
1E!
11#
0A!
0e"
1c"
0W!
0B!
1f"
0F!
0C!
1T!
0a"
1@!
0N
1O
1E
0U
1T
0V
0f"
1F!
1C!
1G!
1L"
0H"
1n
0G!
1M"
0I"
1&
0(
#1600000
0#
0-!
0.!
1o
#1800000
1#
1-!
1.!
0o
00#
1/#
1d"
0b"
1["
0Z"
0Y"
01#
1A!
1e"
0c"
0""
0u!
1'"
1z!
1o!
0T!
1a"
1U!
0@!
1N
0O
1C
0D
0E
1V
1f"
0#"
0{!
1v!
1("
1z
1p!
0&"
0L"
1H"
0n
0P"
0N"
0H"
0z
1)"
0q!
0x
0M"
1I"
0m
1Q"
0O"
0I"
1P"
1L"
1J"
1D"
1y
1l
0&
1(
0Q"
1M"
1K"
1E"
1$
0%
0(
0$
1&
1'
1*
#2000000
0#
0-!
0.!
1o
#2200000
1#
1-!
1.!
0o
1g"
0d"
1b"
1Y"
1V!
11#
0A!
1c"
1W!
1T!
0a"
1@!
1M
0N
1O
1E
1U
0V
0J"
1F"
0D"
1n
0K"
1G"
0E"
0'
1)
0*
#2400000
0#
0-!
0.!
1o
#2600000
1#
1-!
1.!
0o
10#
1d"
0b"
1Z"
0Y"
01#
1A!
0c"
1""
1u!
0T!
1a"
1B!
0U!
0@!
1N
0O
1D
0E
1V
1#"
1{!
0v!
1J"
0F"
1D"
0F!
0C!
0n
0L"
0J"
1F"
0D"
1z
1K"
0G"
1E"
1G!
1m
0M"
0K"
1G"
0E"
1'
0)
1*
0&
0'
1)
0*
#2800000
0#
0-!
0.!
1o
#3000000
1#
1-!
1.!
0o
0d"
1b"
1Y"
0V!
1H!
0E!
11#
0A!
0e"
1c"
0W!
0B!
1i"
1I!
0G!
0f"
1F!
1C!
1T!
0a"
1@!
0N
1O
1E
0U
1S
0T
0V
1h"
1f"
0C!
1X!
0I!
1G!
0P"
1N"
1L"
1J"
0F"
1n
0i"
0X!
1Q"
1O"
1M"
1K"
0G"
1$
1%
1&
1'
0)
#3200000
0#
0-!
0.!
1o
#3400000
1#
1-!
1.!
0o
00#
0/#
1.#
1d"
0b"
1\"
0["
0Z"
0Y"
01#
1A!
1e"
0c"
0""
0u!
1Q!
15"
0'"
0z!
0o!
0k"
1i"
11"
1+"
1y!
1n!
1c!
0T!
1a"
1U!
0@!
1N
0O
1B
0C
0D
0E
1V
0h"
0f"
0#"
0{!
1v!
0("
0z
0p!
1&"
1n"
1l"
1,"
1}!
0*"
1x
1d!
0w
1P"
0N"
0L"
0J"
1F"
0n
1k"
0i"
1L"
1J"
0F"
1D"
1|!
1z
0)"
0x
0q"
1o"
1-"
0~!
0e!
0l!
0Q"
0O"
0M"
0K"
1G"
0m
0n"
0l"
1M"
1K"
0G"
1E"
0}!
1*"
0L"
0J"
0D"
1t"
1r"
0!"
1f!
0l
1k
0$
0%
0&
0'
1)
1q"
0o"
0M"
0K"
0E"
1~!
0u"
1&
1'
0)
1*
0t"
0r"
1!"
1z"
1x"
1v"
0&
0'
0*
1u"
0z"
0x"
0v"
#3600000
0#
0-!
0.!
1o
#3800000
1#
1-!
1.!
0o
0g"
0d"
1b"
1Y"
1V!
11#
0A!
1c"
1W!
0$"
1T!
0R!
0a"
1@!
0S!
0M
0N
1O
1E
1U
0V
0%"
1L"
1n
1M"
1&
#4000000
0#
0-!
0.!
1o
#4200000
1#
1-!
1.!
0o
10#
1d"
0b"
1Z"
0Y"
01#
1A!
0c"
12"
1""
1u!
0Q!
1(!
1R!
1a"
1B!
0U!
0@!
1S!
1N
0O
1D
0E
1V
1#"
1{!
0v!
03"
1C!
0T!
0B"
0|!
0z
14"
0C"
1m
0n
1}!
0*"
1W"
1V"
1U"
1R"
1g
0~!
1,
1-
1.
11
0!"
0,"
0""
0-"
0#"
0P"
0L"
1B"
1C"
0k
0m
1Q"
0M"
1$
0&
#4400000
0#
0-!
0.!
1o
#4600000
1#
1-!
1.!
0o
0d"
1b"
1Y"
0V!
1E!
11#
0A!
0e"
1c"
0W!
0B!
1f"
0F!
0C!
1T!
0a"
1@!
0N
1O
1E
0U
1T
0V
0f"
1F!
1C!
1I!
0G!
1N"
1L"
1J"
1D"
1n
0I!
1G!
1X!
1O"
1M"
1K"
1E"
0X!
1%
1&
1'
1*
#4800000
0#
0-!
0.!
1o
#5000000
1#
1-!
1.!
0o
00#
1/#
1d"
0b"
1["
0Z"
0Y"
01#
1A!
1e"
0c"
02"
0u!
0(!
1."
1'"
1z!
1o!
0T!
1a"
1U!
0@!
1N
0O
1C
0D
0E
1V
1f"
0{!
1v!
13"
01"
10"
1z
1p!
0&"
0N"
0L"
0J"
0D"
0n
0z
1""
04"
12"
1(!
1("
1x
0O"
0M"
0K"
0E"
0("
1#"
0W"
0V"
0U"
0R"
03"
1)"
0g
0%
0&
0'
0*
0)"
1P"
1F"
14"
1m
0,
0-
0.
01
1l
1N"
1H"
0F"
0Q"
1G"
1W"
1V"
1U"
1R"
0l
1g
1O"
1I"
0G"
0$
1)
1,
1-
1.
11
1%
1(
0)
#5200000
0#
0-!
0.!
1o
#5400000
1#
1-!
1.!
0o
1g"
0d"
1b"
1Y"
1V!
11#
0A!
1c"
1W!
1T!
0a"
1@!
1M
0N
1O
1E
1U
0V
1L"
0H"
1n
1M"
0I"
1&
0(
#5600000
0#
0-!
0.!
1o
#5800000
1#
1-!
1.!
0o
10#
1d"
0b"
1Z"
0Y"
01#
1A!
0c"
1u!
0T!
1a"
1B!
0U!
0@!
1N
0O
1D
0E
1V
1{!
0v!
0L"
1H"
0F!
0C!
0n
1z
0""
0M"
1I"
1I!
0G!
1("
0#"
1X!
0&
1(
1)"
0P"
0N"
0H"
0m
1P"
1L"
1J"
1D"
1Q"
0O"
0I"
1l
0Q"
1M"
1K"
1E"
1$
0%
0(
0$
1&
1'
1*
#6000000
0#
0-!
0.!
1o
#6200000
1#
1-!
1.!
0o
0d"
1b"
1Y"
1Y!
0V!
0H!
0E!
11#
0A!
1l"
1]"
0J!
0X!
0e"
1c"
0W!
0B!
0k"
1i"
0I!
1G!
0f"
1F!
1C!
1T!
0a"
1@!
0N
1O
1E
1R
0U
0S
0T
0V
1K!
1h"
1f"
0C!
0l"
1J!
1X!
0G!
0J"
1F"
0D"
1n
0i"
0K!
0K"
1G"
0E"
0'
1)
0*
#6400000
0#
0-!
0.!
1o
#6600000
1#
1-!
1.!
0o
1-#
00#
0/#
0.#
1d"
0b"
1^"
0\"
0["
0Z"
0Y"
01#
1A!
1>"
16"
05"
1w!
1Z!
0a!
0P!
1}
1e"
0c"
1$"
0u!
1Q!
0'"
0z!
0o!
1i"
0y!
0n!
0c!
0T!
1a"
1U!
0@!
1N
0O
1A
0B
0C
0D
0E
1V
07"
06"
1x!
1r!
0y
0\!
0[!
0Q!
1l!
0h"
0f"
0{!
1v!
0;"
0'!
0z
0p!
1&"
0+"
0}!
1*"
0x
0d!
1w
1J"
0F"
1D"
0n
17"
0s!
1v
1;"
1'!
1k"
0i"
1|!
1z
1""
0?"
02"
0("
1q!
1x
1,"
0l!
1K"
0G"
1E"
0t!
1?"
12"
1l"
0*"
1("
1#"
0)"
0r!
1y
1-"
1'
0)
1*
1'"
0x!
1&!
1%!
1$!
0,"
1)"
0J"
0D"
0B"
1s!
0C"
1m
0l
1k
0|!
0z
1+"
1*"
0-"
1t!
1l
1}!
0*"
0("
1,"
0L"
1F"
1B"
0'"
1x!
0&!
0%!
0$!
1C"
0k
0,"
0)"
1-"
0M"
1G"
1|!
1z
0+"
0}!
1*"
0K"
0E"
0-"
1L"
0F"
0B"
0*"
1("
1,"
0C"
0l
1k
0&
1)
0'
0*
1N"
0L"
1H"
1B"
1-"
0,"
1)"
1C"
0k
1O"
1I"
0N"
1L"
0H"
0B"
0-"
0G"
0C"
1k
1l
0L"
1F"
1B"
1C"
1%
1(
0k
0)
1G"
0O"
0I"
1)
0%
0(
#6800000
0#
0-!
0.!
1o
#6880000
b0 !
02#
00!
0o
07!
09!
0:!
0<!
0>!
0A!
0Y!
0a"
0U!
1@!
0l"
0]"
0X!
0[
06
0Z
05
0Y
04
0X
03
0W
02
0V
0R
#7000000
1#
1-!
1.!
1o
0-#
0g"
0d"
0^"
0>"
0."
1%"
0w!
0Z!
1a!
1P!
0}
0M
0N
0A
00"
0("
0""
0x!
0y
1\!
1[!
1Q!
1e!
1l!
02"
0(!
0)"
0#"
1~!
0v
0;"
07"
0'!
0f!
0P"
0F"
1!"
0?"
0l
0m
1Q"
0G"
1$
0)
#7200000
0#
0-!
0.!
0o
#7400000
1#
1-!
1.!
1o
#7600000
0#
0-!
0.!
0o
#7800000
1#
1-!
1.!
1o
#8000000
0#
0-!
0.!
0o
#8200000
1#
1-!
1.!
1o
#8400000
0#
0-!
0.!
0o
#8600000
1#
1-!
1.!
1o
#8800000
0#
0-!
0.!
0o
#9000000
1#
1-!
1.!
1o
#9200000
0#
0-!
0.!
0o
#9400000
1#
1-!
1.!
1o
#9600000
0#
0-!
0.!
0o
#9800000
1#
1-!
1.!
1o
#10000000
0#
0-!
0.!
0o
#10200000
1#
1-!
1.!
1o
#10400000
0#
0-!
0.!
0o
#10600000
1#
1-!
1.!
1o
#10720000
b10 !
12#
10!
0o
#10800000
0#
0-!
0.!
1o
#11000000
1#
1-!
1.!
0o
1A!
1>!
1<!
1:!
19!
17!
1a"
1U!
0@!
1V
1W
12
1X
13
1Y
14
1Z
15
1[
16
#11200000
0#
0-!
0.!
1o
#11400000
1#
1-!
1.!
0o
1b"
1Y"
1V!
11#
0A!
1c"
1W!
1;"
17"
13"
1T!
1'!
0a"
1@!
1O
1E
1U
0V
04"
1N"
1L"
1J"
1D"
1?"
1n
0W"
0V"
0U"
0R"
1O"
1M"
1K"
1E"
0g
0,
0-
0.
01
1%
1&
1'
1*
#11600000
0#
0-!
0.!
1o
#11800000
1#
1-!
1.!
0o
10#
1d"
0b"
1Z"
0Y"
01#
1A!
0c"
1""
1u!
0Q!
0;"
07"
03"
0T!
0'!
1a"
1B!
0U!
0@!
1N
0O
1D
0E
1V
1#"
1{!
0v!
1;"
17"
13"
1'!
0N"
0L"
0J"
0D"
0?"
1C!
0n
1P"
1N"
1H"
0|!
0z
1?"
0O"
0M"
0K"
0E"
1m
0Q"
1O"
1I"
1*"
0%
0&
0'
0*
0$
1%
1(
#12000000
0#
0-!
0.!
1o
#12200000
1#
1-!
1.!
0o
0d"
1b"
1Y"
0V!
1E!
11#
0A!
0e"
1c"
0W!
0B!
1f"
0F!
0C!
1T!
0a"
1@!
0N
1O
1E
0U
1T
0V
0f"
1F!
1C!
1G!
1L"
0H"
1n
0G!
1M"
0I"
1&
0(
#12400000
0#
0-!
0.!
1o
